Hypothesis Testing
…
So when was Gilbert working? She began working in this part of the hospital in March 1990 and stopped working in February 1996. Her shifts throughout that time span? The evening shifts. The one exception was 1990, when she was assigned to work the night shift.

This evidence is compelling in establishing an association between Gilbert and the increase in deaths. When the district attorney brought a case against Gilbert in court, this was the first line of evidence they provided. In a trial, however, there is a high burden of proof.

Could there be an alternative explanation for the trend found in this data?

The role of random chance

Suppose for a moment that the occurrence of deaths at the hospital had nothing to do with Gilbert being on shift. In that case we would expect that the proportion of shifts with a death would be fairly similar when comparing shifts where Gilbert was working and shifts where she was not. But we wouldn’t expect those proportions to be exactly equal. It’s reasonable to think that a slightly higher proportion of Gilbert’s shifts could have had a death just due to random chance, not due to anything malicious on her part.

So just how different were these proportions in the data? The plot above shows data from 1,641 individual shifts, on which three different variables were recorded: the shift number, whether or not there was a death on the shift, and whether or not Gilbert was working that shift.

Here are the first 10 observations.

# A tibble: 594 × 1
   `<!DOCTYPE html>`                                                            
   <chr>                                                                        
 1 "window.require([\"js/edison/edison\"], function (edisonModule) {"           
 2 "});"                                                                        
 3 "window.require([\"js/edison/edison\"], function (edisonModule) {"           
 4 "window.require([\"js/data_modules/stormcrow\"], function (module) {"        
 5 "});"                                                                        
 6 "});"                                                                        
 7 "window.addRequireLoadCallback(function() {"                                 
 8 "window.require([\"js/data_modules/stormcrow\"], function (module) {"        
 9 "window.require([\"js/data_modules/stormcrow\"], function (module) {"        
10 "<link rel=\"shortcut icon\" href=\"https://cfl.dropboxstatic.com/static/met…
# ℹ 584 more rows
…
